{
  "name": "form-fields",
  "$schema": "../../node_modules/nx/schemas/project-schema.json",
  "sourceRoot": "libs/form-fields/src",
  "projectType": "library",
  "generators": {},
  "targets": {
    "snapshot": {
      "executor": "nx:run-commands",
      "options": {
        "env": {
          "SNAPSHOT_OUTPUT": "libs/form-fields/src/lib/__image_snapshots__"
        },
        "commands": [
          "npx test-storybook -c libs/form-fields/.storybook --url=http://localhost:6007/form-fields"
        ]
      },
      "configurations": {
        "ci": {
          "commands": [
            "nx run form-fields:static-storybook &",
            "npx wait-on tcp:6007 && npx test-storybook -c libs/form-fields/.storybook --url=http://localhost:6007"
          ],
          "parallel": false
        }
      },
      "dependsOn": ["build-storybook"]
    },
    "static-storybook": {
      "executor": "@nx/web:file-server",
      "options": {
        "port": 6007,
        "buildTarget": "form-fields:build-storybook",
        "staticFilePath": "dist/storybook/form-fields"
      },
      "configurations": {
        "ci": {
          "buildTarget": "form-fields:build-storybook:ci"
        }
      }
    },
    "lint": {
      "executor": "@nx/eslint:lint",
      "options": {
        "lintFilePatterns": [
          "libs/form-fields/**/*.{ts,tsx,js,jsx}",
          "libs/form-fields/package.json"
        ]
      }
    },
    "build": {
      "executor": "@nx/rollup:rollup",
      "options": {
        "outputPath": "dist/libs/form-fields",
        "tsConfig": "libs/form-fields/tsconfig.lib.json",
        "project": "libs/form-fields/package.json",
        "entryFile": "libs/form-fields/src/index.ts",
        "external": "all",
        "rollupConfig": "@nx/react/plugins/bundle-rollup",
        "assets": [
          {
            "glob": "README.md",
            "input": "./libs/form-fields",
            "output": "."
          }
        ]
      },
      "outputs": ["{options.outputPath}"]
    },
    "test": {
      "executor": "@nx/jest:jest",
      "options": {
        "jestConfig": "libs/form-fields/jest.config.js",
        "codeCoverage": true
      },
      "outputs": ["{workspaceRoot}/coverage/libs/form-fields"]
    },
    "storybook": {
      "executor": "@nx/storybook:storybook",
      "port": 4600,
      "options": {
        "configDir": "libs/form-fields/.storybook",
        "outputDir": "dist/storybook/form-fields"
      },
      "configurations": {
        "ci": {
          "quiet": true
        }
      }
    },
    "build-storybook": {
      "executor": "@nx/storybook:build",
      "outputs": ["{options.outputDir}"],
      "options": {
        "configDir": "libs/form-fields/.storybook",
        "outputDir": "dist/storybook/form-fields"
      },
      "configurations": {
        "ci": {
          "quiet": true
        }
      }
    },
    "typecheck": {
      "executor": "nx:run-commands",
      "options": {
        "command": "tsc -p libs/form-fields/tsconfig.lib.json"
      }
    },
    "docs": {
      "executor": "nx:run-commands",
      "options": {
        "command": "npx typedoc --out docs/form-fields libs/form-fields/src/index.ts --tsconfig libs/form-fields/tsconfig.lib.json"
      }
    }
  },
  "tags": ["scope:form-fields"]
}
