{
  "ignore": [
    ".*/**/*",
    "docs/**/*",
    "coverage/**/*",
    "**/.eslintignore",
    "**/.eslintrc",
    "**/.gitattributes",
    "**/.gitignore",
    "**/.gitkeep",
    "**/.gitlab-ci.yml",
    "**/.npmignore",
    "**/.prettierrc",
    "**/.prettierignore",
    "**/.editorconfig",
    "**/.babelrc",
    "jest.config.js",
    "*.dockerignore",
    "Dockerfile*",
    "AUTHORS",
    "CONTACT.txt",
    "**/LICENCE",
    "**/README.md",
    ".DS_Store",
    "**/.DS_Store",
    "**/.browserslistrc",
    "apps/*/*/index.html",
    "apps/**/fixtures/*",
    "apps/**/*.svg",
    "libs/**/*.svg",
    "libs/**/Fonts/Roboto/*",
    "Docker/*",
    "**/manifest.webmanifest",
    "tools/build-downstream-pipeline",
    "**/*.mdx",
    ".npmrc"
  ],
  "license": "./LICENCE",
  "defaultFormat": {
    "prepend": "/*",
    "append": "*/"
  },
  "licenseFormats": {
    "html|xml|svg": {
      "prepend": "<!--",
      "append": "-->"
    },
    "js|jsx|ts|tsx|css|scss|less|php|as|c|java|cpp|go|cto|acl": {
      "prepend": "/* *",
      "append": " * */",
      "eachLine": {
        "prepend": " * "
      }
    }
  },
  "trailingWhitespace": "TRIM",
  "regexIdentifier": "##"
}
