{
  "type": "FeatureCollection",
  "features": [
    {
      "type": "Feature",
      "geometry": { "type": "Point", "coordinates": [5.2, 52.0] },
      "properties": {
        "timeStep": [
          "2021-07-22T06:00:00Z",
          "2021-07-22T07:00:00Z",
          "2021-07-22T08:00:00Z",
          "2021-07-22T09:00:00Z",
          "2021-07-22T10:00:00Z",
          "2021-07-22T11:00:00Z",
          "2021-07-22T12:00:00Z",
          "2021-07-22T13:00:00Z",
          "2021-07-22T14:00:00Z",
          "2021-07-22T15:00:00Z",
          "2021-07-22T16:00:00Z",
          "2021-07-22T17:00:00Z",
          "2021-07-22T18:00:00Z",
          "2021-07-22T19:00:00Z",
          "2021-07-22T20:00:00Z",
          "2021-07-22T21:00:00Z",
          "2021-07-22T22:00:00Z",
          "2021-07-22T23:00:00Z",
          "2021-07-23T00:00:00Z",
          "2021-07-23T01:00:00Z",
          "2021-07-23T02:00:00Z",
          "2021-07-23T03:00:00Z",
          "2021-07-23T04:00:00Z",
          "2021-07-23T05:00:00Z",
          "2021-07-23T06:00:00Z",
          "2021-07-23T07:00:00Z",
          "2021-07-23T08:00:00Z",
          "2021-07-23T09:00:00Z",
          "2021-07-23T10:00:00Z",
          "2021-07-23T11:00:00Z",
          "2021-07-23T12:00:00Z",
          "2021-07-23T13:00:00Z",
          "2021-07-23T14:00:00Z",
          "2021-07-23T15:00:00Z",
          "2021-07-23T16:00:00Z",
          "2021-07-23T17:00:00Z",
          "2021-07-23T18:00:00Z",
          "2021-07-23T19:00:00Z",
          "2021-07-23T20:00:00Z",
          "2021-07-23T21:00:00Z",
          "2021-07-23T22:00:00Z",
          "2021-07-23T23:00:00Z",
          "2021-07-24T00:00:00Z",
          "2021-07-24T01:00:00Z",
          "2021-07-24T02:00:00Z",
          "2021-07-24T03:00:00Z",
          "2021-07-24T04:00:00Z",
          "2021-07-24T05:00:00Z",
          "2021-07-24T06:00:00Z"
        ],
        "dims": { "reference_time": "2021-07-22T06:00:00Z" },
        "observationType": "MeasureTimeseriesObservation",
        "observedPropertyName": "x_wind__at_10m",
        "id": "x_wind__at_10m;wind__at_10m;reference_time=2021-07-22T06:00:00Z;2021-07-22T06:00:00Z/2021-07-24T06:00:00Z",
        "result": [
          -1.195611,
          -1.50679,
          -0.882572,
          -0.500056,
          -0.671625,
          -0.477948,
          -0.222869,
          0.017426,
          -0.000263,
          -0.602904,
          -0.976556,
          -1.007277,
          -1.237819,
          -0.639718,
          -0.237402,
          -0.373712,
          -0.544496,
          -0.855296,
          -1.209884,
          -1.324411,
          -1.185412,
          -0.851468,
          -1.031577,
          -1.057093,
          -1.573894,
          -2.768225,
          -2.369883,
          -2.174728,
          -2.43273,
          -2.534979,
          -2.891815,
          -2.742343,
          -2.424168,
          -3.188164,
          -2.734154,
          -3.226434,
          -2.548869,
          -1.938756,
          -1.923089,
          -1.847856,
          -2.237129,
          -2.163108,
          -2.329398,
          -2.875335,
          -3.039641,
          -3.160617,
          -2.872896,
          -2.822078,
          -3.152857
        ]
      }
    },
    {
      "type": "Feature",
      "geometry": { "type": "Point", "coordinates": [5.2, 52.0] },
      "properties": {
        "timeStep": [
          "2021-07-22T06:00:00Z",
          "2021-07-22T07:00:00Z",
          "2021-07-22T08:00:00Z",
          "2021-07-22T09:00:00Z",
          "2021-07-22T10:00:00Z",
          "2021-07-22T11:00:00Z",
          "2021-07-22T12:00:00Z",
          "2021-07-22T13:00:00Z",
          "2021-07-22T14:00:00Z",
          "2021-07-22T15:00:00Z",
          "2021-07-22T16:00:00Z",
          "2021-07-22T17:00:00Z",
          "2021-07-22T18:00:00Z",
          "2021-07-22T19:00:00Z",
          "2021-07-22T20:00:00Z",
          "2021-07-22T21:00:00Z",
          "2021-07-22T22:00:00Z",
          "2021-07-22T23:00:00Z",
          "2021-07-23T00:00:00Z",
          "2021-07-23T01:00:00Z",
          "2021-07-23T02:00:00Z",
          "2021-07-23T03:00:00Z",
          "2021-07-23T04:00:00Z",
          "2021-07-23T05:00:00Z",
          "2021-07-23T06:00:00Z",
          "2021-07-23T07:00:00Z",
          "2021-07-23T08:00:00Z",
          "2021-07-23T09:00:00Z",
          "2021-07-23T10:00:00Z",
          "2021-07-23T11:00:00Z",
          "2021-07-23T12:00:00Z",
          "2021-07-23T13:00:00Z",
          "2021-07-23T14:00:00Z",
          "2021-07-23T15:00:00Z",
          "2021-07-23T16:00:00Z",
          "2021-07-23T17:00:00Z",
          "2021-07-23T18:00:00Z",
          "2021-07-23T19:00:00Z",
          "2021-07-23T20:00:00Z",
          "2021-07-23T21:00:00Z",
          "2021-07-23T22:00:00Z",
          "2021-07-23T23:00:00Z",
          "2021-07-24T00:00:00Z",
          "2021-07-24T01:00:00Z",
          "2021-07-24T02:00:00Z",
          "2021-07-24T03:00:00Z",
          "2021-07-24T04:00:00Z",
          "2021-07-24T05:00:00Z",
          "2021-07-24T06:00:00Z"
        ],
        "dims": { "reference_time": "2021-07-22T06:00:00Z" },
        "observationType": "MeasureTimeseriesObservation",
        "observedPropertyName": "y_wind__at_10m",
        "id": "y_wind__at_10m;wind__at_10m;reference_time=2021-07-22T06:00:00Z;2021-07-22T06:00:00Z/2021-07-24T06:00:00Z",
        "result": [
          -2.154117,
          -3.02094,
          -3.306602,
          -3.430124,
          -3.174459,
          -3.388117,
          -3.587002,
          -3.681085,
          -3.531599,
          -3.50688,
          -3.71637,
          -3.94127,
          -3.499919,
          -2.552867,
          -2.582629,
          -2.880877,
          -2.600412,
          -1.931317,
          -1.446178,
          -1.435975,
          -1.475967,
          -1.622583,
          -1.44421,
          -1.324002,
          -1.819803,
          -2.505592,
          -1.722439,
          -1.580163,
          -2.316494,
          -2.195594,
          -2.15121,
          -1.897929,
          -1.804226,
          -2.3967,
          -2.254984,
          -2.296457,
          -2.111752,
          -1.931502,
          -1.643489,
          -1.497346,
          -1.605636,
          -1.195368,
          -1.37986,
          -1.714299,
          -1.735225,
          -1.721189,
          -0.649582,
          -0.633745,
          -0.168753
        ]
      }
    },
    {
      "type": "Feature",
      "geometry": { "type": "Point", "coordinates": [5.2, 52.0] },
      "properties": {
        "timeStep": [
          "2021-07-22T06:00:00Z",
          "2021-07-22T07:00:00Z",
          "2021-07-22T08:00:00Z",
          "2021-07-22T09:00:00Z",
          "2021-07-22T10:00:00Z",
          "2021-07-22T11:00:00Z",
          "2021-07-22T12:00:00Z",
          "2021-07-22T13:00:00Z",
          "2021-07-22T14:00:00Z",
          "2021-07-22T15:00:00Z",
          "2021-07-22T16:00:00Z",
          "2021-07-22T17:00:00Z",
          "2021-07-22T18:00:00Z",
          "2021-07-22T19:00:00Z",
          "2021-07-22T20:00:00Z",
          "2021-07-22T21:00:00Z",
          "2021-07-22T22:00:00Z",
          "2021-07-22T23:00:00Z",
          "2021-07-23T00:00:00Z",
          "2021-07-23T01:00:00Z",
          "2021-07-23T02:00:00Z",
          "2021-07-23T03:00:00Z",
          "2021-07-23T04:00:00Z",
          "2021-07-23T05:00:00Z",
          "2021-07-23T06:00:00Z",
          "2021-07-23T07:00:00Z",
          "2021-07-23T08:00:00Z",
          "2021-07-23T09:00:00Z",
          "2021-07-23T10:00:00Z",
          "2021-07-23T11:00:00Z",
          "2021-07-23T12:00:00Z",
          "2021-07-23T13:00:00Z",
          "2021-07-23T14:00:00Z",
          "2021-07-23T15:00:00Z",
          "2021-07-23T16:00:00Z",
          "2021-07-23T17:00:00Z",
          "2021-07-23T18:00:00Z",
          "2021-07-23T19:00:00Z",
          "2021-07-23T20:00:00Z",
          "2021-07-23T21:00:00Z",
          "2021-07-23T22:00:00Z",
          "2021-07-23T23:00:00Z",
          "2021-07-24T00:00:00Z",
          "2021-07-24T01:00:00Z",
          "2021-07-24T02:00:00Z",
          "2021-07-24T03:00:00Z",
          "2021-07-24T04:00:00Z",
          "2021-07-24T05:00:00Z",
          "2021-07-24T06:00:00Z"
        ],
        "dims": { "reference_time": "2021-07-22T06:00:00Z" },
        "observationType": "MeasureTimeseriesObservation",
        "observedPropertyName": "precipitation_flux",
        "id": "precipitation_flux;precipitation_flux;reference_time=2021-07-22T06:00:00Z;2021-07-22T06:00:00Z/2021-07-24T06:00:00Z",
        "result": [
          0.0,
          0.0,
          0.0,
          0.0,
          0.0,
          0.0,
          0.0,
          0.0,
          0.0,
          0.0,
          0.0,
          0.0,
          0.0,
          0.0,
          0.0,
          0.0,
          0.0,
          0.0,
          0.0,
          0.0,
          0.0,
          0.0,
          0.6,
          0.8,
          1.5,
          0.4,
          0.0,
          0.0,
          0.0,
          0.0,
          0.0,
          0.0,
          0.0,
          0.0,
          0.0,
          0.0,
          0.0,
          0.0,
          0.0,
          0.0,
          0.0,
          0.0,
          0.0,
          0.0,
          0.0,
          0.0,
          0.0,
          0.0,
          0.0
        ]
      }
    },
    {
      "type": "Feature",
      "geometry": { "type": "Point", "coordinates": [5.2, 52.0] },
      "properties": {
        "timeStep": [
          "2021-07-22T06:00:00Z",
          "2021-07-22T07:00:00Z",
          "2021-07-22T08:00:00Z",
          "2021-07-22T09:00:00Z",
          "2021-07-22T10:00:00Z",
          "2021-07-22T11:00:00Z",
          "2021-07-22T12:00:00Z",
          "2021-07-22T13:00:00Z",
          "2021-07-22T14:00:00Z",
          "2021-07-22T15:00:00Z",
          "2021-07-22T16:00:00Z",
          "2021-07-22T17:00:00Z",
          "2021-07-22T18:00:00Z",
          "2021-07-22T19:00:00Z",
          "2021-07-22T20:00:00Z",
          "2021-07-22T21:00:00Z",
          "2021-07-22T22:00:00Z",
          "2021-07-22T23:00:00Z",
          "2021-07-23T00:00:00Z",
          "2021-07-23T01:00:00Z",
          "2021-07-23T02:00:00Z",
          "2021-07-23T03:00:00Z",
          "2021-07-23T04:00:00Z",
          "2021-07-23T05:00:00Z",
          "2021-07-23T06:00:00Z",
          "2021-07-23T07:00:00Z",
          "2021-07-23T08:00:00Z",
          "2021-07-23T09:00:00Z",
          "2021-07-23T10:00:00Z",
          "2021-07-23T11:00:00Z",
          "2021-07-23T12:00:00Z",
          "2021-07-23T13:00:00Z",
          "2021-07-23T14:00:00Z",
          "2021-07-23T15:00:00Z",
          "2021-07-23T16:00:00Z",
          "2021-07-23T17:00:00Z",
          "2021-07-23T18:00:00Z",
          "2021-07-23T19:00:00Z",
          "2021-07-23T20:00:00Z",
          "2021-07-23T21:00:00Z",
          "2021-07-23T22:00:00Z",
          "2021-07-23T23:00:00Z",
          "2021-07-24T00:00:00Z",
          "2021-07-24T01:00:00Z",
          "2021-07-24T02:00:00Z",
          "2021-07-24T03:00:00Z",
          "2021-07-24T04:00:00Z",
          "2021-07-24T05:00:00Z",
          "2021-07-24T06:00:00Z"
        ],
        "dims": { "reference_time": "2021-07-22T06:00:00Z" },
        "observationType": "MeasureTimeseriesObservation",
        "observedPropertyName": "air_temperature__at_2m",
        "id": "air_temperature__at_2m;air_temperature__at_2m;reference_time=2021-07-22T06:00:00Z;2021-07-22T06:00:00Z/2021-07-24T06:00:00Z",
        "result": [
          16.47915,
          17.940332,
          19.0375,
          19.993799,
          20.833154,
          21.609277,
          21.978662,
          22.287256,
          22.472803,
          22.424707,
          21.945947,
          21.171777,
          19.970605,
          18.250879,
          16.569971,
          15.49624,
          14.859033,
          14.247217,
          13.599023,
          12.935449,
          12.414209,
          12.081445,
          11.821191,
          12.324365,
          14.35061,
          16.403833,
          17.052881,
          17.875391,
          18.938867,
          20.021875,
          20.824365,
          21.447412,
          22.078271,
          22.305078,
          22.399805,
          22.225732,
          21.540674,
          20.122705,
          18.399316,
          17.218408,
          16.352197,
          15.728174,
          15.171045,
          14.73623,
          14.402002,
          14.111719,
          13.966455,
          14.489893,
          16.307275
        ]
      }
    },
    {
      "geometry": { "type": "Point", "coordinates": [5.2, 52.0] },
      "properties": {
        "timeStep": [
          "2021-07-22T06:00:00Z",
          "2021-07-22T07:00:00Z",
          "2021-07-22T08:00:00Z",
          "2021-07-22T09:00:00Z",
          "2021-07-22T10:00:00Z",
          "2021-07-22T11:00:00Z",
          "2021-07-22T12:00:00Z",
          "2021-07-22T13:00:00Z",
          "2021-07-22T14:00:00Z",
          "2021-07-22T15:00:00Z",
          "2021-07-22T16:00:00Z",
          "2021-07-22T17:00:00Z",
          "2021-07-22T18:00:00Z",
          "2021-07-22T19:00:00Z",
          "2021-07-22T20:00:00Z",
          "2021-07-22T21:00:00Z",
          "2021-07-22T22:00:00Z",
          "2021-07-22T23:00:00Z",
          "2021-07-23T00:00:00Z",
          "2021-07-23T01:00:00Z",
          "2021-07-23T02:00:00Z",
          "2021-07-23T03:00:00Z",
          "2021-07-23T04:00:00Z",
          "2021-07-23T05:00:00Z",
          "2021-07-23T06:00:00Z",
          "2021-07-23T07:00:00Z",
          "2021-07-23T08:00:00Z",
          "2021-07-23T09:00:00Z",
          "2021-07-23T10:00:00Z",
          "2021-07-23T11:00:00Z",
          "2021-07-23T12:00:00Z",
          "2021-07-23T13:00:00Z",
          "2021-07-23T14:00:00Z",
          "2021-07-23T15:00:00Z",
          "2021-07-23T16:00:00Z",
          "2021-07-23T17:00:00Z",
          "2021-07-23T18:00:00Z",
          "2021-07-23T19:00:00Z",
          "2021-07-23T20:00:00Z",
          "2021-07-23T21:00:00Z",
          "2021-07-23T22:00:00Z",
          "2021-07-23T23:00:00Z",
          "2021-07-24T00:00:00Z",
          "2021-07-24T01:00:00Z",
          "2021-07-24T02:00:00Z",
          "2021-07-24T03:00:00Z",
          "2021-07-24T04:00:00Z",
          "2021-07-24T05:00:00Z",
          "2021-07-24T06:00:00Z"
        ],
        "dims": { "reference_time": "2021-07-22T06:00:00Z" },
        "observationType": "MeasureTimeseriesObservation",
        "observedPropertyName": "wind__at_10m_speed",
        "id": "wind__at_10m_speed;air_temperature__at_2m;reference_time=2021-07-22T06:00:00Z;2021-07-22T06:00:00Z/2021-07-24T06:00:00Z",
        "result": [
          2.463677274524811,
          3.375869456554859,
          3.4223603144011587,
          3.4663823589604195,
          3.2447295855442255,
          3.421662037138238,
          3.5939190223438535,
          3.6811262465040504,
          3.5315990097928722,
          3.558328338927706,
          3.842534007401366,
          4.067949872801901,
          3.712361631538878,
          2.6317995818855584,
          2.593517353179847,
          2.9050151373225237,
          2.6568060643863336,
          2.112230243629941,
          1.8855370855912648,
          1.9534811740956197,
          1.8930610647395925,
          1.83242280790024,
          1.7747939686141037,
          1.6942334274393833,
          2.4059977726600246,
          3.733773014135835,
          2.929699906545037,
          2.688188419838349,
          3.3592141499070878,
          3.353617679950563,
          3.6042056626009837,
          3.3350531657966114,
          3.021890459844632,
          3.988553695375806,
          3.5440867562705063,
          3.96025139469769,
          3.3100195903748064,
          2.7366904836937627,
          2.529689189414779,
          2.378364320379029,
          2.7536908190893543,
          2.471424867376712,
          2.7074173416752725,
          3.3475920336304426,
          3.50006045797869,
          3.598887521778084,
          2.9454181709122387,
          2.8923618312909953,
          3.1573699240757334
        ],
        "unitOfMeasureTitle": "m/s"
      }
    },
    {
      "geometry": { "type": "Point", "coordinates": [5.2, 52.0] },
      "properties": {
        "timeStep": [
          "2021-07-22T06:00:00Z",
          "2021-07-22T07:00:00Z",
          "2021-07-22T08:00:00Z",
          "2021-07-22T09:00:00Z",
          "2021-07-22T10:00:00Z",
          "2021-07-22T11:00:00Z",
          "2021-07-22T12:00:00Z",
          "2021-07-22T13:00:00Z",
          "2021-07-22T14:00:00Z",
          "2021-07-22T15:00:00Z",
          "2021-07-22T16:00:00Z",
          "2021-07-22T17:00:00Z",
          "2021-07-22T18:00:00Z",
          "2021-07-22T19:00:00Z",
          "2021-07-22T20:00:00Z",
          "2021-07-22T21:00:00Z",
          "2021-07-22T22:00:00Z",
          "2021-07-22T23:00:00Z",
          "2021-07-23T00:00:00Z",
          "2021-07-23T01:00:00Z",
          "2021-07-23T02:00:00Z",
          "2021-07-23T03:00:00Z",
          "2021-07-23T04:00:00Z",
          "2021-07-23T05:00:00Z",
          "2021-07-23T06:00:00Z",
          "2021-07-23T07:00:00Z",
          "2021-07-23T08:00:00Z",
          "2021-07-23T09:00:00Z",
          "2021-07-23T10:00:00Z",
          "2021-07-23T11:00:00Z",
          "2021-07-23T12:00:00Z",
          "2021-07-23T13:00:00Z",
          "2021-07-23T14:00:00Z",
          "2021-07-23T15:00:00Z",
          "2021-07-23T16:00:00Z",
          "2021-07-23T17:00:00Z",
          "2021-07-23T18:00:00Z",
          "2021-07-23T19:00:00Z",
          "2021-07-23T20:00:00Z",
          "2021-07-23T21:00:00Z",
          "2021-07-23T22:00:00Z",
          "2021-07-23T23:00:00Z",
          "2021-07-24T00:00:00Z",
          "2021-07-24T01:00:00Z",
          "2021-07-24T02:00:00Z",
          "2021-07-24T03:00:00Z",
          "2021-07-24T04:00:00Z",
          "2021-07-24T05:00:00Z",
          "2021-07-24T06:00:00Z"
        ],
        "dims": { "reference_time": "2021-07-22T06:00:00Z" },
        "observationType": "MeasureTimeseriesObservation",
        "observedPropertyName": "wind__at_10m_direction",
        "id": "wind__at_10m_direction;air_temperature__at_2m;reference_time=2021-07-22T06:00:00Z;2021-07-22T06:00:00Z/2021-07-24T06:00:00Z",
        "result": [
          29.031821416594113,
          26.509187454913786,
          14.944543719984608,
          8.294357639081454,
          11.945988157711326,
          8.029502934937227,
          3.555353235029145,
          359.7287677965751,
          0.0042668462597248435,
          9.75494814301885,
          14.722854217158556,
          14.3363027065148,
          19.477197804456807,
          14.067950704430729,
          5.252018041919598,
          7.39122603143943,
          11.826210701748153,
          23.886462009408035,
          39.91612021021257,
          42.685588423460416,
          38.76943197727789,
          27.688729176617755,
          35.537636510850405,
          38.60412536854764,
          40.85556221884758,
          47.85094108231888,
          53.99021871191738,
          53.99774765925139,
          46.40201913630355,
          49.10353435040457,
          53.35458337664875,
          55.31354973731186,
          53.34094073978224,
          53.066011226717364,
          50.48601138921333,
          54.558138213637505,
          50.35806468220426,
          45.10738899006137,
          49.48250469746861,
          50.98162054936063,
          54.33217623099341,
          61.07425978646543,
          59.358871954844886,
          59.19624619864942,
          60.27946166281842,
          61.42844953393143,
          77.2592586763925,
          77.34324373701381,
          86.93623357397831
        ],
        "unitOfMeasureTitle": "degrees"
      }
    },
    {
      "type": "Feature",
      "geometry": { "type": "Point", "coordinates": [5.2, 52.0] },
      "properties": {
        "timeStep": [
          "2021-07-22T06:00:00Z",
          "2021-07-22T07:00:00Z",
          "2021-07-22T08:00:00Z",
          "2021-07-22T09:00:00Z",
          "2021-07-22T10:00:00Z",
          "2021-07-22T11:00:00Z",
          "2021-07-22T12:00:00Z",
          "2021-07-22T13:00:00Z",
          "2021-07-22T14:00:00Z",
          "2021-07-22T15:00:00Z",
          "2021-07-22T16:00:00Z",
          "2021-07-22T17:00:00Z",
          "2021-07-22T18:00:00Z",
          "2021-07-22T19:00:00Z",
          "2021-07-22T20:00:00Z",
          "2021-07-22T21:00:00Z",
          "2021-07-22T22:00:00Z",
          "2021-07-22T23:00:00Z",
          "2021-07-23T00:00:00Z",
          "2021-07-23T01:00:00Z",
          "2021-07-23T02:00:00Z",
          "2021-07-23T03:00:00Z",
          "2021-07-23T04:00:00Z",
          "2021-07-23T05:00:00Z",
          "2021-07-23T06:00:00Z",
          "2021-07-23T07:00:00Z",
          "2021-07-23T08:00:00Z",
          "2021-07-23T09:00:00Z",
          "2021-07-23T10:00:00Z",
          "2021-07-23T11:00:00Z",
          "2021-07-23T12:00:00Z",
          "2021-07-23T13:00:00Z",
          "2021-07-23T14:00:00Z",
          "2021-07-23T15:00:00Z",
          "2021-07-23T16:00:00Z",
          "2021-07-23T17:00:00Z",
          "2021-07-23T18:00:00Z",
          "2021-07-23T19:00:00Z",
          "2021-07-23T20:00:00Z",
          "2021-07-23T21:00:00Z",
          "2021-07-23T22:00:00Z",
          "2021-07-23T23:00:00Z",
          "2021-07-24T00:00:00Z",
          "2021-07-24T01:00:00Z",
          "2021-07-24T02:00:00Z",
          "2021-07-24T03:00:00Z",
          "2021-07-24T04:00:00Z",
          "2021-07-24T05:00:00Z",
          "2021-07-24T06:00:00Z"
        ],
        "dims": { "reference_time": "2021-07-22T06:00:00Z" },
        "observationType": "MeasureTimeseriesObservation",
        "observedPropertyName": "weathertype",
        "id": "weathertype;weathertype;reference_time=2021-07-22T06:00:00Z;2021-07-22T06:00:00Z/2021-07-24T06:00:00Z",
        "result": [
          1,
          4,
          0,
          3,
          2,
          6,
          10,
          0,
          1,
          2,
          0,
          1,
          7,
          0,
          2,
          7,
          7,
          2,
          2,
          4,
          2,
          4,
          1,
          9,
          5,
          10,
          10,
          6,
          9,
          3,
          4,
          3,
          6,
          6,
          5,
          2,
          4,
          4,
          9,
          3,
          6,
          7,
          5,
          3,
          9,
          6,
          3,
          3,
          10
        ],
        "unitOfMeasureTitle": "weathertype"
      }
    }
  ],
  "timestamp": "2021-07-22T13:19:13100241",
  "numberReturned": 4
}
