<?xml version="1.0" encoding="UTF-8"?>
<svg width="145px" height="145px" viewBox="0 0 145 145" version="1.1" xmlns="http://www.w3.org/2000/svg" xmlns:xlink="http://www.w3.org/1999/xlink">
    <title>Icon app 2 (D)</title>
    <defs>
        <linearGradient x1="16.8198885%" y1="6.37978573%" x2="57.3699143%" y2="42.3567612%" id="linearGradient-1">
            <stop stop-color="#FFFFFF" stop-opacity="0.33333" offset="0%"></stop>
            <stop stop-color="#FFFFFF" stop-opacity="0" offset="100%"></stop>
        </linearGradient>
        <linearGradient x1="50.9283282%" y1="46.4796835%" x2="43.0354733%" y2="0.844973858%" id="linearGradient-2">
            <stop stop-color="#FFFFFF" stop-opacity="0" offset="0%"></stop>
            <stop stop-color="#FFFFFF" stop-opacity="0.33333" offset="100%"></stop>
        </linearGradient>
    </defs>
    <g id="Components" stroke="none" stroke-width="1" fill="none" fill-rule="evenodd">
        <g id="Logos-(D)" transform="translate(-253.000000, -1330.000000)">
            <g id="Button-app" transform="translate(76.000000, 1212.090133)">
                <g id="Icon-app-2-(D)" transform="translate(177.000000, 118.634725)">
                    <rect id="Surface" fill="#051039" x="0" y="0" width="145" height="145.275142" rx="14"></rect>
                    <g id="GeoWeb-logo" transform="translate(9.999998, 34.064516)" fill-rule="nonzero">
                        <g id="KNMI-logo" transform="translate(0.000000, 0.000000)">
                            <g id="layer1">
                                <g id="g4">
                                    <path d="M51.3718269,14.6292604 C39.2278476,14.6446217 28.6274898,22.7561612 25.5837151,34.3625363 C24.4821868,34.1881725 23.3689023,34.0958384 22.2533455,34.0863143 C9.96315436,34.0861047 3.53951287e-06,43.9224734 3.53951287e-06,56.056012 C3.53951287e-06,68.1895506 11.7331074,78.0257096 22.2533455,78.0257096 C40.1116571,78.0257096 87.6126785,78.0220522 94.4004871,78.0257096 C99.5373501,78.0257096 112.007652,77.7783281 120.845564,66.5064799 C129.683477,55.2341538 124.3627,31.0095033 120.689903,20.6578847 C117.017106,10.306266 105.591555,0 94.3880739,0 C81.217154,0 69.5088464,7.10134597 63.6090015,17.5899979 C59.8276128,15.6522307 55.6317284,14.6371605 51.3718269,14.6292604 Z" id="path4220" fill="#0B9EE5"></path>
                                    <path d="M22.3645598,78.0257102 C40.3101329,77.9139968 58.5242542,77.9762239 76.560667,77.9762239 C81.5747252,77.9762239 90.0258035,77.9811836 97.6687552,77.9848207 C103.613053,77.7534254 114.445309,75.7711628 121.949767,65.0087188 C124.742942,60.0360068 125.178345,55.8475743 125.436575,53.1993475 C107.989007,53.1936101 8.39808329,53.1995594 0.189675569,53.1996603 C0.0632251897,53.8960828 0,54.9205407 0,56.273034 C0,67.7432816 11.3548038,78.0257102 22.3645598,78.0257102 Z" id="path4220-7" fill="#60BCE9"></path>
                                </g>
                                <path d="M94.4435187,0 C84.8140324,0 75.970526,3.81358241 69.6121756,9.975606 C67.3205067,12.2402788 65.3463363,14.8075813 63.7183126,17.5976969 C63.7183126,37.5733027 63.7279278,55.6100883 63.7279278,78.0114149 C67.9104847,78.01483 72.1020159,78.0180988 76.2710622,78.0180988 C81.251729,78.0180988 89.6465267,78.0224897 97.2385795,78.0257096 C103.14329,77.8208504 113.39949,76.0659107 120.853971,66.5376872 C129.676275,55.2604273 124.365191,31.024686 120.698915,20.6685365 C117.03264,10.312387 105.627726,0.00160999168 94.4440315,0.00160999168 L94.4435187,0 Z" id="path4220-2" fill-opacity="0.31373" fill="#FFFFFF"></path>
                            </g>
                            <g id="g4244" transform="translate(35.399064, 25.713018)">
                                <path d="M58.9294,11.9250739 C64.5131341,16.0003757 66.1531494,15.8334247 69.8625109,20.8442736 C71.6381326,23.2427399 72.5659835,26.2640389 72.5680742,29.265541 C72.5680742,37.5871293 65.4931077,44.3328595 56.7659704,44.3323958 C48.0393194,44.3323958 40.9648391,37.5866657 40.9648391,29.265541 C40.9677564,29.0332747 40.9763138,28.8010825 40.9904628,28.5691777 C39.3067365,28.0510778 37.627143,27.6745224 36.2963628,27.6745224 C34.9561012,27.6745224 33.2619212,28.0553153 31.5661853,28.5791456 C31.5836892,28.8076474 31.5956988,29.0365061 31.6022627,29.265541 C31.6021752,37.5866657 24.5277824,44.3323958 15.8011314,44.3323958 C7.07448032,44.3323958 0,37.5866657 0,29.265541 C0.00291731147,27.6317762 0.348978523,26.034684 0.913167112,24.5087582 C3.57472761,14.9947288 5.18916778,4.00312951 14.3644041,2.78565273 C18.3782357,2.2530414 22.1205629,6.88779843 26.5718939,6.88779843 C31.023614,6.88766861 31.1024787,0.1281596 37.7977085,0.00947183959 C45.9797947,-0.135317955 52.9604349,7.56839855 58.9297403,11.9250739 L58.9294,11.9250739 Z M56.6179655,18.3787208 C50.1731382,18.3787208 44.9487196,23.3603614 44.9487196,29.5056983 C44.9487196,35.6510353 50.1731382,40.6326758 56.6179655,40.6326758 C63.0627927,40.6326758 68.2872114,35.6510353 68.2872114,29.5056983 C68.2872114,23.3603614 63.0627927,18.3787208 56.6179655,18.3787208 L56.6179655,18.3787208 Z M15.7148276,18.3787208 C9.27000031,18.3787208 4.04558168,23.3603614 4.04558168,29.5056983 C4.04558168,35.6510353 9.27000031,40.6326758 15.7148276,40.6326758 C22.1596548,40.6326758 27.3840735,35.6510353 27.3840735,29.5056983 C27.3840735,23.3603614 22.1596548,18.3787208 15.7148276,18.3787208 L15.7148276,18.3787208 Z" id="path4329" fill="#003232"></path>
                                <path d="M32.5277312,2.18386869 C31.4969964,3.19239012 30.7578469,4.26238809 29.9012757,5.20859844 C29.6426803,5.49425577 29.2960308,5.82016494 29.0028896,6.04075727 C28.4166072,6.48198829 27.7641505,6.78751654 26.9763306,6.86568356 C26.8450272,6.8787114 26.709946,6.88560085 26.570834,6.88560549 C29.047048,13.0508783 32.3184238,18.9463218 36.2952056,27.6717267 C37.6259858,27.6717267 39.3055793,28.0482822 40.9893056,28.5663821 C40.9751566,28.7982868 40.9665992,29.0304697 40.9636819,29.2627454 C40.9636819,33.163261 42.5176364,36.7178203 45.0680474,39.3938584 C45.2380731,39.5722331 45.4125867,39.7459299 45.5913158,39.9163627 C48.4507673,42.6428895 52.4017794,44.329832 56.7646187,44.329832 C57.0373387,44.329832 57.3082111,44.322924 57.5775276,44.3098962 C59.1935236,44.2318729 60.7454361,43.9230714 62.1975765,43.416168 C62.6816266,43.2471956 63.1548436,43.0554593 63.6153899,42.8438705 C64.3062092,42.5265059 64.9686821,42.1634095 65.5992103,41.7572284 C69.8025699,39.0496639 72.5667225,34.4639583 72.5667225,29.2630236 C72.5647777,26.2615214 71.5530054,23.294791 69.8611593,20.8417561 C66.4251498,15.8601156 62.7215257,14.9245222 58.9280483,11.9225564 C53.1833758,7.37681518 45.8157057,0 38.202009,0 C35.1823971,0 33.6614568,1.07491239 32.5278381,2.18422568 L32.5277312,2.18386869 Z M56.6164582,18.3754754 C59.0332563,18.3754754 61.2781275,19.0764287 63.1405391,20.2761487 C63.450941,20.4761051 63.7507434,20.68959 64.0388765,20.9163671 C64.3270388,21.1431256 64.6039598,21.3827266 64.8679278,21.6344281 C66.9796238,23.6479937 68.2857041,26.4296917 68.2857041,29.502592 C68.2857041,35.4559886 63.3821897,40.3170869 57.2164519,40.6151972 C57.0175594,40.6247942 56.8176798,40.6296623 56.6162637,40.6296623 C54.1997574,40.6296623 51.9544972,39.9293581 50.0921828,38.7299163 C50.0919689,38.7297772 50.0912104,38.7300507 50.0912104,38.7299163 C46.987191,36.7303521 44.9470178,33.3435319 44.9470178,29.5028702 C44.9470178,26.4302017 46.2530982,23.6482255 48.3647941,21.6347062 C48.6287524,21.3830094 48.9056636,21.1434038 49.1938454,20.9166453 C49.4820077,20.6898868 49.7808571,20.4764018 50.091259,20.2764268 C51.9536707,19.0766605 54.1994657,18.3757536 56.6163123,18.3757536 L56.6164582,18.3754754 Z" id="path4329-2" fill="url(#linearGradient-1)"></path>
                                <path d="M15.1162439,2.74392656 C14.8672611,2.73923932 14.6168974,2.75229497 14.3660086,2.78558318 C5.19057781,4.00305997 3.57681835,14.9951229 0.915257852,24.5091522 C0.351049814,26.0350781 0.0046190765,27.6320776 0.00170176503,29.2659351 C0.00170176503,37.5870598 7.07618208,44.3327899 15.8028331,44.3327899 C24.5294842,44.3327899 31.6039645,37.5870598 31.6039645,29.2659351 C31.5974005,29.0368956 31.5853909,28.8080507 31.5678871,28.5795397 C33.2702356,28.1126239 34.3808074,27.7128872 36.2790048,27.6871561 C33.8992565,22.4125052 29.3309413,12.8910578 26.5735957,6.8875898 C22.4004789,6.88759026 18.850986,2.81423515 15.1158549,2.74390338 L15.1162439,2.74392656 Z M15.7164321,18.3787208 C22.1612593,18.3787208 27.385678,23.3603614 27.385678,29.5056983 C27.385678,35.6510353 22.1612593,40.6326758 15.7164321,40.6326758 C9.27160483,40.6326758 4.0471862,35.6510353 4.0471862,29.5056983 C4.0471862,23.3603614 9.27160483,18.3787208 15.7164321,18.3787208 L15.7164321,18.3787208 Z" id="path4329-7" fill="url(#linearGradient-2)"></path>
                            </g>
                        </g>
                    </g>
                </g>
            </g>
        </g>
    </g>
</svg>