<?xml version="1.0" encoding="UTF-8"?>
<svg width="32px" height="32px" viewBox="0 0 32 32" version="1.1" xmlns="http://www.w3.org/2000/svg" xmlns:xlink="http://www.w3.org/1999/xlink">
    <title>Favicon 32x32 (2) (D)</title>
    <defs>
        <linearGradient x1="16.8198885%" y1="6.54486321%" x2="57.3699143%" y2="42.3856865%" id="linearGradient-1">
            <stop stop-color="#FFFFFF" stop-opacity="0.33333" offset="0%"></stop>
            <stop stop-color="#FFFFFF" stop-opacity="0" offset="100%"></stop>
        </linearGradient>
        <linearGradient x1="50.9318548%" y1="46.4796835%" x2="43.0090164%" y2="0.844973858%" id="linearGradient-2">
            <stop stop-color="#FFFFFF" stop-opacity="0" offset="0%"></stop>
            <stop stop-color="#FFFFFF" stop-opacity="0.33333" offset="100%"></stop>
        </linearGradient>
    </defs>
    <g id="Components" stroke="none" stroke-width="1" fill="none" fill-rule="evenodd">
        <g id="Logos-(D)" transform="translate(-520.000000, -969.000000)">
            <g id="Favicon-(D)" transform="translate(80.000000, 764.000000)">
                <g id="Favicon-32x32-(2)-(D)" transform="translate(440.000000, 205.000000)">
                    <rect id="Rectangle" fill="#051039" x="0" y="0" width="32" height="32"></rect>
                    <g id="GeoWeb-logo" transform="translate(3.999998, 9.000000)" fill-rule="nonzero">
                        <g id="KNMI-logo">
                            <g id="layer1">
                                <g id="g4">
                                    <path d="M9.81106575,2.78862559 C7.49179103,2.79155377 5.46731938,4.3377732 4.88601489,6.55017723 C4.67564342,6.51694004 4.46302673,6.49933934 4.24997609,6.49752387 C1.90277762,6.4974839 6.75981283e-07,8.37248981 6.75981283e-07,10.6853816 C6.75981283e-07,12.9982734 2.24080581,14.8732393 4.24997609,14.8732393 C7.66058224,14.8732393 16.732396,14.8725421 18.0287414,14.8732393 C19.009787,14.8732393 21.3913832,14.8260835 23.0792605,12.6774469 C24.7671378,10.5287192 23.7509681,5.911023 23.0495321,3.9378003 C22.348096,1.96457759 20.1660279,0 18.0263708,0 C15.5109695,0 13.2749,1.35365662 12.148139,3.35300056 C11.425964,2.9836239 10.6246279,2.79013151 9.81106575,2.78862559 Z" id="path4220" fill="#0B9EE5"></path>
                                    <path d="M4.27121595,14.8732394 C7.69848743,14.8519447 11.1770466,14.8638064 14.6216668,14.8638064 C15.5792589,14.8638064 17.1932581,14.8647518 18.65292,14.8654451 C19.7881705,14.8213366 21.8569305,14.4434782 23.2901428,12.3919441 C23.8235873,11.4440471 23.9067412,10.6456493 23.9560583,10.140845 C20.6238966,10.1397513 1.60387808,10.1408854 0.0362245143,10.1409046 C0.0120748381,10.2736565 0,10.4689384 0,10.7267503 C0,12.9132057 2.16855683,14.8732394 4.27121595,14.8732394 Z" id="path4220-7" fill="#60BCE9"></path>
                                </g>
                                <path d="M18.0369597,0 C16.1979065,0 14.5089609,0.72694403 13.2946339,1.90154727 C12.8569677,2.33323859 12.4799378,2.82261708 12.1690154,3.35446815 C12.1690154,7.16221264 12.1708518,10.6003797 12.1708518,14.8705145 C12.9696425,14.8711655 13.7701472,14.8717885 14.5663577,14.8717885 C15.5175726,14.8717885 17.1208232,14.8726255 18.5707644,14.8732393 C19.6984547,14.8341891 21.6571984,14.499663 23.0808661,12.6833956 C24.7657624,10.5337275 23.7514439,5.91391711 23.0512533,3.93983074 C22.3510627,1.96574437 20.1729358,0.000306896171 18.0370576,0.000306896171 L18.0369597,0 Z" id="path4220-2" fill-opacity="0.31373" fill="#FFFFFF"></path>
                            </g>
                            <g id="g4244" transform="translate(6.760564, 4.901408)">
                                <path d="M11.254422,2.2731543 C12.3208116,3.04998722 12.6340241,3.01816307 13.3424433,3.9733297 C13.6815541,4.4305247 13.8587564,5.00644387 13.8591557,5.57858939 C13.8591557,7.16484826 12.5079684,8.45071748 10.8412471,8.45062911 C9.17461864,8.45062911 7.82352417,7.16475989 7.82352417,5.57858939 C7.82408132,5.53431484 7.82571563,5.49005442 7.82841782,5.4458488 C7.50685734,5.34708874 7.18608615,5.27530984 6.93193182,5.27530984 C6.67596674,5.27530984 6.35240979,5.3478965 6.02855569,5.44774888 C6.03189861,5.49130582 6.03419222,5.53493082 6.03544581,5.57858939 C6.03542909,7.16475989 4.68435133,8.45062911 3.0177229,8.45062911 C1.35109448,8.45062911 0,7.16475989 0,5.57858939 C0.000557152361,5.26716159 0.0666484226,4.96272432 0.174397975,4.67185274 C0.682706646,2.85829108 0.991034762,0.763075447 2.74333465,0.531000357 C3.50990201,0.429474133 4.22461706,1.31295024 5.07473871,1.31295024 C5.92493464,1.3129255 5.93999632,0.0244297476 7.21866099,0.00180551946 C8.78128765,-0.0257942714 10.1144604,1.44268605 11.254487,2.2731543 L11.254422,2.2731543 Z M10.8129809,3.50334671 C9.58213845,3.50334671 8.58437143,4.45294566 8.58437143,5.6243681 C8.58437143,6.79579054 9.58213845,7.74538949 10.8129809,7.74538949 C12.0438233,7.74538949 13.0415903,6.79579054 13.0415903,5.6243681 C13.0415903,4.45294566 12.0438233,3.50334671 10.8129809,3.50334671 L10.8129809,3.50334671 Z M3.00124048,3.50334671 C1.77039806,3.50334671 0.772631037,4.45294566 0.772631037,5.6243681 C0.772631037,6.79579054 1.77039806,7.74538949 3.00124048,7.74538949 C4.2320829,7.74538949 5.22984992,6.79579054 5.22984992,5.6243681 C5.22984992,4.45294566 4.2320829,3.50334671 3.00124048,3.50334671 L3.00124048,3.50334671 Z" id="path4329" fill="#003232"></path>
                                <path d="M6.21219311,0.41628845 C6.01534189,0.608532526 5.87417806,0.812495246 5.71058884,0.992861602 C5.66120193,1.04731352 5.5949983,1.10943824 5.53901377,1.15148749 C5.42704472,1.23559483 5.30243759,1.29383454 5.1519786,1.30873471 C5.1269021,1.31121808 5.10110409,1.31253134 5.07453628,1.31253223 C5.5474472,2.48775483 6.17221929,3.61154266 6.93171081,5.27477694 C7.18586515,5.27477694 7.50663633,5.34655584 7.82819682,5.44531589 C7.82549463,5.48952152 7.82386032,5.53378016 7.82330316,5.57805648 C7.82330316,6.32157169 8.12007965,6.99914082 8.60716082,7.50924646 C8.63963259,7.5432482 8.67296144,7.57635823 8.70709538,7.60884609 C9.25319755,8.12857587 10.0077676,8.45014039 10.8409889,8.45014039 C10.8930734,8.45014039 10.944805,8.44882359 10.9962394,8.44634022 C11.3048647,8.43146745 11.6012512,8.3726038 11.8785831,8.27597802 C11.9710276,8.24376854 12.0614033,8.20721981 12.1493591,8.16688682 C12.2812928,8.10639087 12.4078128,8.03717752 12.528232,7.9597514 C13.3309957,7.4436362 13.8588975,6.56951026 13.8588975,5.57810951 C13.8585261,5.00596399 13.6652964,4.44044666 13.3421852,3.97284982 C12.6859711,3.02325087 11.9786476,2.84490832 11.2541638,2.27267442 C10.157038,1.40616648 8.74994968,0 7.29587488,0 C6.71918504,0 6.42871366,0.204899504 6.21221354,0.416356499 L6.21219311,0.41628845 Z M10.812693,3.50272808 C11.2742566,3.50272808 11.7029853,3.63634359 12.0586714,3.86503388 C12.1179524,3.90314952 12.1752091,3.94384397 12.2302372,3.98707215 C12.2852708,4.0302968 12.3381576,4.07596946 12.3885706,4.12394873 C12.7918653,4.50777406 13.0413025,5.03802058 13.0413025,5.62377598 C13.0413025,6.7586108 12.1048222,7.68523202 10.9272807,7.74205772 C10.8892959,7.7438871 10.8511226,7.74481505 10.8126559,7.74481505 C10.351148,7.74481505 9.92234497,7.61132327 9.56667747,7.382686 C9.56663662,7.38265948 9.56649176,7.38271163 9.56649176,7.382686 C8.97368164,7.00152962 8.58404643,6.35593489 8.58404643,5.62382901 C8.58404643,5.03811779 8.83348354,4.50781825 9.23677827,4.12400176 C9.28718942,4.07602337 9.34007432,4.03034982 9.39511169,3.98712518 C9.45014534,3.94390053 9.50722003,3.90320608 9.56650104,3.86508691 C9.92218711,3.63638778 10.3510923,3.5027811 10.8126652,3.5027811 L10.812693,3.50272808 Z" id="path4329-2" fill="url(#linearGradient-1)"></path>
                                <path d="M2.8869221,0.523046526 C2.83937101,0.522153046 2.79155619,0.524641711 2.74364109,0.5309871 C0.991304052,0.763062191 0.683105938,2.8583662 0.174797267,4.67192786 C0.0670440008,4.96279944 0.000882157905,5.26721903 0.000325005544,5.57866451 C0.000325005544,7.16483501 1.35141948,8.45070423 3.01804791,8.45070423 C4.68467634,8.45070423 6.03577081,7.16483501 6.03577081,5.57866451 C6.03451722,5.53500505 6.03222361,5.49138271 6.0288807,5.447824 C6.35399767,5.35882064 6.56609629,5.28262295 6.92861676,5.27771809 C6.47412901,4.27226557 5.60166555,2.45728989 5.07506371,1.31291047 C4.27807583,1.31291056 3.60018855,0.53644873 2.88684782,0.523042108 L2.8869221,0.523046526 Z M3.00154691,3.50334671 C4.23238934,3.50334671 5.23015636,4.45294566 5.23015636,5.6243681 C5.23015636,6.79579054 4.23238934,7.74538949 3.00154691,7.74538949 C1.77070449,7.74538949 0.77293747,6.79579054 0.77293747,5.6243681 C0.77293747,4.45294566 1.77070449,3.50334671 3.00154691,3.50334671 L3.00154691,3.50334671 Z" id="path4329-7" fill="url(#linearGradient-2)"></path>
                            </g>
                        </g>
                    </g>
                </g>
            </g>
        </g>
    </g>
</svg>