{
  "uuid": "someuniqueidprescibedbyBE2",
  "phenomenon": "VA_CLD",
  "sequence": "A01V",
  "issueDate": "2020-09-17T12:00:00Z",
  "validDateStart": "2020-11-11T09:18+00:00",
  "validDateEnd": "2020-11-11T10:18+00:00",
  "firName": "AMSTERDAM FIR",
  "locationIndicatorATSU": "EHAA",
  "locationIndicatorATSR": "EHAA",
  "locationIndicatorMWO": "EHDB",
  "isObservationOrForecast": "OBS",
  "observationOrForecastTime": "2020-11-11T09:18+00:00",
  "movementType": "STATIONARY",
  "change": "WKN",
  "type": "NORMAL",
  "status": "PUBLISHED",
  "levelInfoMode": "BETW",
  "vaSigmetVolcanoName": "EYJAFJALLAJOKULL",
  "vaSigmetVolcanoCoordinates": { "latitude": 63.62, "longitude": -19.61 },
  "level": { "value": 500, "unit": "ft" },
  "lowerLevel": { "value": 1000, "unit": "ft" },
  "startGeometry": {
    "type": "FeatureCollection",
    "features": [
      {
        "type": "Feature",
        "properties": { "selectionType": "poly" },
        "geometry": {
          "type": "Polygon",
          "coordinates": [
            [
              [4.799062887514267, 54.04327723979929],
              [6.006227982070749, 53.64012115183787],
              [4.6168492883359304, 53.32840097044425],
              [4.799062887514267, 54.04327723979929]
            ]
          ]
        }
      }
    ]
  },
  "startGeometryIntersect": {
    "type": "FeatureCollection",
    "features": [
      {
        "type": "Feature",
        "properties": { "selectionType": "poly" },
        "geometry": {
          "type": "Polygon",
          "coordinates": [
            [
              [4.799062887514267, 54.04327723979929],
              [6.006227982070749, 53.64012115183787],
              [4.6168492883359304, 53.32840097044425],
              [4.799062887514267, 54.04327723979929]
            ]
          ]
        }
      }
    ]
  }
}
