[
  {
    "creationDate": "2020-09-17T12:00:00Z",
    "canbe": ["DRAFTED", "DISCARDED", "PUBLISHED"],
    "airmet": {
      "uuid": "someuniqueidprescibedbyBE",
      "phenomenon": "ISOL_TSGR",
      "sequence": "A01",
      "validDateStart": "2020-03-10T13:26:19Z",
      "validDateEnd": "2020-03-10T15:26:19Z",
      "firName": "AMSTERDAM FIR",
      "locationIndicatorATSU": "EHAA",
      "locationIndicatorATSR": "EHAA",
      "locationIndicatorMWO": "EHDB",
      "isObservationOrForecast": "OBS",
      "observationOrForecastTime": "2020-03-10T11:26:19Z",
      "movementType": "STATIONARY",
      "change": "WKN",
      "type": "NORMAL",
      "status": "DRAFT",
      "levelInfoMode": "ABV",
      "level": {
        "value": 1000,
        "unit": "FT"
      },

      "firGeometry": {},
      "startGeometry": {
        "type": "FeatureCollection",
        "features": [
          {
            "type": "Feature",
            "geometry": {
              "type": "Polygon",
              "coordinates": [
                [
                  [5.0, 55.0],
                  [4.331914, 55.332644],
                  [3.368817, 55.764314],
                  [2.761908, 54.379261],
                  [3.15576, 52.913554],
                  [2.000002, 51.500002],
                  [3.370001, 51.369722],
                  [3.370527, 51.36867],
                  [3.362223, 51.320002],
                  [3.36389, 51.313608],
                  [3.373613, 51.309999],
                  [3.952501, 51.214441],
                  [4.397501, 51.452776],
                  [5.078611, 51.391665],
                  [5.848333, 51.139444],
                  [5.651667, 50.824717],
                  [6.011797, 50.757273],
                  [5.934168, 51.036386],
                  [6.222223, 51.361666],
                  [5.94639, 51.811663],
                  [6.405001, 51.830828],
                  [7.053095, 52.237764],
                  [7.031389, 52.268885],
                  [7.063612, 52.346109],
                  [7.065557, 52.385828],
                  [7.133055, 52.888887],
                  [7.14218, 52.898244],
                  [7.191667, 53.3],
                  [6.5, 53.666667],
                  [6.500002, 55.000002],
                  [5.0, 55.0]
                ]
              ]
            },

            "properties": {
              "selectionType": "fir"
            }
          }
        ]
      }
    }
  }
]
